%YAML 1.1
%TAG !u! tag:unity3d.com,2011:
--- !u!1045 &1
EditorBuildSettings:
  m_ObjectHideFlags: 0
  serializedVersion: 2
  m_Scenes:
  - enabled: 1
    path: Assets/Scenes/LessacTrash.unity
    guid: 564bd216347e3a8439f89985c3916bd2
  m_configObjects:
    Unity.XR.WindowsMR.Settings: {fileID: 11400000, guid: a9577dd97a6b9d2428ab6394006b7042, type: 2}
    com.unity.xr.management.loader_settings: {fileID: 11400000, guid: 30a4ac84a4f9dd849ab153ae8cbe07cb, type: 2}
    com.unity.xr.openxr.settings4: {fileID: 11400000, guid: 036d827cbd8f4274a80df93aaeacbdd6, type: 2}
